Verilog/BACKupDP/a.out
Chronologic VCS simulator copyright 1991-2014
Contains Synopsys proprietary information.
Compiler version I-2014.03-2; Runtime version I-2014.03-2;  Dec  5 20:22 2017

 PC: reset = 1, addr_in = 00, addr_out = 00 
ADDER: addr_in = 00, constant = 02, addr_out = 00,
IM: Addr_in = 00, Addr_out = xx, instruc_out = f120 
IFIDBUFFER: instruc_in = f120, addr_in = 00, ,instruc_out = f120, opcode = 1111, funct= 0000, addr_out = xx, offset = 000100100000 , IFID_Fop1 = 0001,IFID_Fop2 = 0010 
Control: control = 1111, R15 = 0,ALUSrc= 0,MemToReg = 0,RegWrite = 1,MemRead = 0,MemWrite = 0, Branch = 0, ALUOP = 11 
RegFile:  Instruc_in = f120, Writedata = 0f50 Writereg =xxxx RegWrite = 1 reset = 1 op1 = 0f00 op2 = 0050 Reg15 = 0000
IDEX:IDEX_FLUSH =0, RD1 = 0f00,RD2 = 0050, signExtendedR2 = 0000000000000010, funct_code_in =0000, IFID_RS = 0001, IFID_RT =0010 , R15_in = 0, ALUSrc_in = 0, MemToReg_in =0, RegWrite_in= 1, MemRead_in = 0, MemWrite_in = 0,Branch_in = 0, ALUOP_in =11,R15_out =0,ALUSrc_out = 0 ,MemToReg_out =0,RegWrite_out = 1,MemRead_out =0, MemWrite_out =0 , Branch_out =0,ALUOP_out = 11, RD1_out = 0f00, RD2_out =0050, signExtendedR2_out =0000000000000010, funct_code_out =0000, IFID_RS_OUT =1, IFID_RT_OUT = 2, opcode = 1111, opcode_out = 1111, addr_in = 00, addr_out =xx 
SignExtension toExtend: 0010 signExtend: 0000000000000010
ALUControl funct: 0000 ALUop: 11  operation: 0001
  ALU operation: 0001 op1: 0f00 op2: 0050 result: 0f50 remainder: xxxx overflow:0 
EXMBuffer: ALU_Result = 0f00, ALU_Remainder= 0f50, movOP_in= xxxxxxxxxxxxxxxx , MemtoReg_in = x,MemWrite_in =0, MemRead_in = 0, R15_in =0,FLUSH_EX =0, RegWrite =0, IDEX_RegRD =1, ,MemtoReg_out = xxxx, MemWrite_out = 0, MemRead_out =0, R15_out =0,RegWrite_out =0, ALU_Result_out =1, ALU_Remainder_out = 0f50, movOp_out =xxxxxxxxxxxxxxxx,EXM_RegRD_out = 0010
MEM: MemWrite: 0001 MemRead: 0 data_in: 0 data_out:0f50 
MWBBuffer: MemToReg_in: 0000111101010000 RegWrite_in: 0000000000000000 ALU_Result: 0 ReadData: 1 movOP_in: 0f50 MemToReg_out: 0000000000000000 RegWriteOut: 0000111101010000 ALU_Result_out: 0 ReadData_out: 1 movOP_out 0f50 
 WBMUX: MemToReg =x, ALUResult = 2, MReadData = 0, WriteData = 0f50    x    x

 PC: reset = 0, addr_in = 02, addr_out = 02 
ADDER: addr_in = 02, constant = 02, addr_out = 02,
IM: Addr_in = 02, Addr_out = xx, instruc_out = f121 
IFIDBUFFER: instruc_in = f121, addr_in = 02, ,instruc_out = f121, opcode = 1111, funct= 0001, addr_out = xx, offset = 000100100001 , IFID_Fop1 = 0001,IFID_Fop2 = 0010 
Control: control = 1111, R15 = 1,ALUSrc= 0,MemToReg = 1,RegWrite = 1,MemRead = 0,MemWrite = 0, Branch = 0, ALUOP = 11 
RegFile:  Instruc_in = f121, Writedata = xxxx Writereg =xxxx RegWrite = 1 reset = 0 op1 = 0f00 op2 = 0050 Reg15 = 0000
IDEX:IDEX_FLUSH =0, RD1 = 0f00,RD2 = 0050, signExtendedR2 = 0000000000000010, funct_code_in =0001, IFID_RS = 0001, IFID_RT =0010 , R15_in = 1, ALUSrc_in = 0, MemToReg_in =1, RegWrite_in= 1, MemRead_in = 0, MemWrite_in = 0,Branch_in = 0, ALUOP_in =11,R15_out =1,ALUSrc_out = 0 ,MemToReg_out =1,RegWrite_out = 1,MemRead_out =0, MemWrite_out =0 , Branch_out =0,ALUOP_out = 11, RD1_out = 0f00, RD2_out =0050, signExtendedR2_out =0000000000000010, funct_code_out =0001, IFID_RS_OUT =1, IFID_RT_OUT = 2, opcode = 1111, opcode_out = 1111, addr_in = 02, addr_out =xx 
SignExtension toExtend: 0010 signExtend: 0000000000000010
ALUControl funct: 0001 ALUop: 11  operation: 0010
  ALU operation: 0010 op1: 0f00 op2: 0050 result: 0eb0 remainder: xxxx overflow:0 
EXMBuffer: ALU_Result = 0f00, ALU_Remainder= 0eb0, movOP_in= xxxxxxxxxxxxxxxx , MemtoReg_in = x,MemWrite_in =1, MemRead_in = 0, R15_in =0,FLUSH_EX =1, RegWrite =0, IDEX_RegRD =1, ,MemtoReg_out = xxxx, MemWrite_out = 1, MemRead_out =0, R15_out =0,RegWrite_out =1, ALU_Result_out =1, ALU_Remainder_out = 0eb0, movOp_out =xxxxxxxxxxxxxxxx,EXM_RegRD_out = 0010
MEM: MemWrite: 0001 MemRead: 0 data_in: 0 data_out:0eb0 
MWBBuffer: MemToReg_in: 0000111010110000 RegWrite_in: 0000000000000000 ALU_Result: 1 ReadData: 1 movOP_in: 0eb0 MemToReg_out: 0000000000000000 RegWriteOut: 0000111010110000 ALU_Result_out: 1 ReadData_out: 1 movOP_out 0eb0 
 WBMUX: MemToReg =x, ALUResult = 2, MReadData = 1, WriteData = 0eb0    x    x

 PC: reset = 0, addr_in = 04, addr_out = 04 
ADDER: addr_in = 04, constant = 02, addr_out = 04,
IM: Addr_in = 04, Addr_out = xx, instruc_out = 93ff 
IFIDBUFFER: instruc_in = 93ff, addr_in = 04, ,instruc_out = 93ff, opcode = 1001, funct= 1111, addr_out = xx, offset = 001111111111 , IFID_Fop1 = 0011,IFID_Fop2 = 1111 
Control: control = 1001, R15 = 1,ALUSrc= 0,MemToReg = 1,RegWrite = 1,MemRead = 0,MemWrite = 0, Branch = 0, ALUOP = 11 
RegFile:  Instruc_in = 93ff, Writedata = xxxx Writereg =xxxx RegWrite = 1 reset = 0 op1 = ff0f op2 = 0000 Reg15 = 0000
IDEX:IDEX_FLUSH =0, RD1 = ff0f,RD2 = 0000, signExtendedR2 = 1111111111111111, funct_code_in =1111, IFID_RS = 0011, IFID_RT =1111 , R15_in = 1, ALUSrc_in = 0, MemToReg_in =1, RegWrite_in= 1, MemRead_in = 0, MemWrite_in = 0,Branch_in = 0, ALUOP_in =11,R15_out =1,ALUSrc_out = 0 ,MemToReg_out =1,RegWrite_out = 1,MemRead_out =0, MemWrite_out =0 , Branch_out =0,ALUOP_out = 11, RD1_out = ff0f, RD2_out =0000, signExtendedR2_out =1111111111111111, funct_code_out =1111, IFID_RS_OUT =3, IFID_RT_OUT = f, opcode = 1001, opcode_out = 1001, addr_in = 04, addr_out =xx 
SignExtension toExtend: 1111 signExtend: 1111111111111111
ALUControl funct: 1111 ALUop: 11  operation: 0010
  ALU operation: 0010 op1: ff0f op2: 0000 result: ff0f remainder: xxxx overflow:0 
EXMBuffer: ALU_Result = ff0f, ALU_Remainder= ff0f, movOP_in= xxxxxxxxxxxxxxxx , MemtoReg_in = x,MemWrite_in =1, MemRead_in = 0, R15_in =0,FLUSH_EX =1, RegWrite =0, IDEX_RegRD =1, ,MemtoReg_out = xxxx, MemWrite_out = 1, MemRead_out =0, R15_out =0,RegWrite_out =1, ALU_Result_out =1, ALU_Remainder_out = ff0f, movOp_out =xxxxxxxxxxxxxxxx,EXM_RegRD_out = 1111
MEM: MemWrite: 0011 MemRead: 0 data_in: 0 data_out:ff0f 
MWBBuffer: MemToReg_in: 1111111100001111 RegWrite_in: 0000000000000000 ALU_Result: 1 ReadData: 1 movOP_in: ff0f MemToReg_out: 0000000000000000 RegWriteOut: 1111111100001111 ALU_Result_out: 1 ReadData_out: 1 movOP_out ff0f 
 WBMUX: MemToReg =x, ALUResult = f, MReadData = 1, WriteData = ff0f    x    x

 PC: reset = 0, addr_in = 06, addr_out = 06 
ADDER: addr_in = 06, constant = 02, addr_out = 06,
IM: Addr_in = 06, Addr_out = xx, instruc_out = 834c 
IFIDBUFFER: instruc_in = 834c, addr_in = 06, ,instruc_out = 834c, opcode = 1000, funct= 1100, addr_out = xx, offset = 001101001100 , IFID_Fop1 = 0011,IFID_Fop2 = 0100 
Control: control = 1000, R15 = 0,ALUSrc= 1,MemToReg = 0,RegWrite = 1,MemRead = 0,MemWrite = 0, Branch = 0, ALUOP = 11 
RegFile:  Instruc_in = 834c, Writedata = 0e10 Writereg =xxxx RegWrite = 1 reset = 0 op1 = ff0f op2 = f0ff Reg15 = 0000
IDEX:IDEX_FLUSH =0, RD1 = ff0f,RD2 = f0ff, signExtendedR2 = 0000000000000100, funct_code_in =1100, IFID_RS = 0011, IFID_RT =0100 , R15_in = 0, ALUSrc_in = 1, MemToReg_in =0, RegWrite_in= 1, MemRead_in = 0, MemWrite_in = 0,Branch_in = 0, ALUOP_in =11,R15_out =0,ALUSrc_out = 1 ,MemToReg_out =0,RegWrite_out = 1,MemRead_out =0, MemWrite_out =0 , Branch_out =0,ALUOP_out = 11, RD1_out = ff0f, RD2_out =f0ff, signExtendedR2_out =1111000100000011, funct_code_out =1100, IFID_RS_OUT =3, IFID_RT_OUT = 4, opcode = 1000, opcode_out = 1000, addr_in = 06, addr_out =xx 
SignExtension toExtend: 0100 signExtend: 0000000000000100
ALUControl funct: 1100 ALUop: 11  operation: 0010
  ALU operation: 0010 op1: ff0f op2: f0ff result: 0e10 remainder: xxxx overflow:0 
EXMBuffer: ALU_Result = ff0f, ALU_Remainder= 0e10, movOP_in= xxxxxxxxxxxxxxxx , MemtoReg_in = x,MemWrite_in =0, MemRead_in = 0, R15_in =0,FLUSH_EX =0, RegWrite =0, IDEX_RegRD =1, ,MemtoReg_out = xxxx, MemWrite_out = 0, MemRead_out =0, R15_out =0,RegWrite_out =0, ALU_Result_out =1, ALU_Remainder_out = 0e10, movOp_out =xxxxxxxxxxxxxxxx,EXM_RegRD_out = 0100
MEM: MemWrite: 0011 MemRead: 0 data_in: 0 data_out:0e10 
MWBBuffer: MemToReg_in: 0000111000010000 RegWrite_in: 0000000000000000 ALU_Result: 0 ReadData: 1 movOP_in: 0e10 MemToReg_out: 0000000000000000 RegWriteOut: 0000111000010000 ALU_Result_out: 0 ReadData_out: 1 movOP_out 0e10 
 WBMUX: MemToReg =x, ALUResult = 4, MReadData = 0, WriteData = 0e10    x    x

 PC: reset = 0, addr_in = 08, addr_out = 08 
ADDER: addr_in = 08, constant = 02, addr_out = 08,
IM: Addr_in = 08, Addr_out = xx, instruc_out = f564 
IFIDBUFFER: instruc_in = f564, addr_in = 08, ,instruc_out = f564, opcode = 1111, funct= 0100, addr_out = xx, offset = 010101100100 , IFID_Fop1 = 0101,IFID_Fop2 = 0110 
Control: control = 1111, R15 = 0,ALUSrc= 1,MemToReg = 0,RegWrite = 1,MemRead = 0,MemWrite = 0, Branch = 0, ALUOP = 11 
RegFile:  Instruc_in = f564, Writedata = 9980 Writereg =xxxx RegWrite = 1 reset = 0 op1 = 0040 op2 = 6666 Reg15 = 0000
IDEX:IDEX_FLUSH =0, RD1 = 0040,RD2 = 6666, signExtendedR2 = 0000000000000110, funct_code_in =0100, IFID_RS = 0101, IFID_RT =0110 , R15_in = 0, ALUSrc_in = 1, MemToReg_in =0, RegWrite_in= 1, MemRead_in = 0, MemWrite_in = 0,Branch_in = 0, ALUOP_in =11,R15_out =0,ALUSrc_out = 1 ,MemToReg_out =0,RegWrite_out = 1,MemRead_out =0, MemWrite_out =0 , Branch_out =0,ALUOP_out = 11, RD1_out = 0040, RD2_out =6666, signExtendedR2_out =0110011001101100, funct_code_out =0100, IFID_RS_OUT =5, IFID_RT_OUT = 6, opcode = 1111, opcode_out = 1111, addr_in = 08, addr_out =xx 
SignExtension toExtend: 0110 signExtend: 0000000000000110
ALUControl funct: 0100 ALUop: 11  operation: 0011
  ALU operation: 0011 op1: 0040 op2: 6666 result: 9980 remainder: 0040 overflow:0 
EXMBuffer: ALU_Result = 0040, ALU_Remainder= 9980, movOP_in= 0000000001000000 , MemtoReg_in = x,MemWrite_in =0, MemRead_in = 0, R15_in =0,FLUSH_EX =0, RegWrite =0, IDEX_RegRD =1, ,MemtoReg_out = xxxx, MemWrite_out = 0, MemRead_out =0, R15_out =0,RegWrite_out =0, ALU_Result_out =1, ALU_Remainder_out = 9980, movOp_out =xxxxxxxxxxxxxxxx,EXM_RegRD_out = 0110
MEM: MemWrite: 0101 MemRead: 0 data_in: 0 data_out:9980 
MWBBuffer: MemToReg_in: 1001100110000000 RegWrite_in: 0000000000000000 ALU_Result: 0 ReadData: 1 movOP_in: 9980 MemToReg_out: 0000000000000000 RegWriteOut: 1001100110000000 ALU_Result_out: 0 ReadData_out: 1 movOP_out 9980 
 WBMUX: MemToReg =x, ALUResult = 6, MReadData = 0, WriteData = 9980    x    x

 PC: reset = 0, addr_in = 0a, addr_out = 0a 
ADDER: addr_in = 0a, constant = 02, addr_out = 0a,
IM: Addr_in = 0a, Addr_out = xx, instruc_out = f155 
IFIDBUFFER: instruc_in = f155, addr_in = 0a, ,instruc_out = f155, opcode = 1111, funct= 0101, addr_out = xx, offset = 000101010101 , IFID_Fop1 = 0001,IFID_Fop2 = 0101 
Control: control = 1111, R15 = 1,ALUSrc= 0,MemToReg = 1,RegWrite = 1,MemRead = 0,MemWrite = 0, Branch = 0, ALUOP = 11 
RegFile:  Instruc_in = f155, Writedata = xxxx Writereg =xxxx RegWrite = 1 reset = 0 op1 = 0f00 op2 = 0040 Reg15 = 0000
IDEX:IDEX_FLUSH =0, RD1 = 0f00,RD2 = 0040, signExtendedR2 = 0000000000000101, funct_code_in =0101, IFID_RS = 0001, IFID_RT =0101 , R15_in = 1, ALUSrc_in = 0, MemToReg_in =1, RegWrite_in= 1, MemRead_in = 0, MemWrite_in = 0,Branch_in = 0, ALUOP_in =11,R15_out =1,ALUSrc_out = 0 ,MemToReg_out =1,RegWrite_out = 1,MemRead_out =0, MemWrite_out =0 , Branch_out =0,ALUOP_out = 11, RD1_out = 0f00, RD2_out =0040, signExtendedR2_out =0000000000000101, funct_code_out =0101, IFID_RS_OUT =1, IFID_RT_OUT = 5, opcode = 1111, opcode_out = 1111, addr_in = 0a, addr_out =xx 
SignExtension toExtend: 0101 signExtend: 0000000000000101
ALUControl funct: 0101 ALUop: 11  operation: 0100
  ALU operation: 0100 op1: 0f00 op2: 0040 result: 003c remainder: 0000 overflow:0 
EXMBuffer: ALU_Result = 0f00, ALU_Remainder= 003c, movOP_in= 0000000000000000 , MemtoReg_in = x,MemWrite_in =1, MemRead_in = 0, R15_in =0,FLUSH_EX =1, RegWrite =0, IDEX_RegRD =1, ,MemtoReg_out = xxxx, MemWrite_out = 1, MemRead_out =0, R15_out =0,RegWrite_out =1, ALU_Result_out =1, ALU_Remainder_out = 003c, movOp_out =xxxxxxxxxxxxxxxx,EXM_RegRD_out = 0101
MEM: MemWrite: 0001 MemRead: 0 data_in: 0 data_out:003c 
MWBBuffer: MemToReg_in: 0000000000111100 RegWrite_in: 0000000000000000 ALU_Result: 1 ReadData: 1 movOP_in: 003c MemToReg_out: 0000000000000000 RegWriteOut: 0000000000111100 ALU_Result_out: 1 ReadData_out: 1 movOP_out 003c 
 WBMUX: MemToReg =x, ALUResult = 5, MReadData = 1, WriteData = 003c    x    x

 PC: reset = 0, addr_in = 0c, addr_out = 0c 
ADDER: addr_in = 0c, constant = 02, addr_out = 0c,
IM: Addr_in = 0c, Addr_out = xx, instruc_out = fff1 
IFIDBUFFER: instruc_in = fff1, addr_in = 0c, ,instruc_out = fff1, opcode = 1111, funct= 0001, addr_out = xx, offset = 111111110001 , IFID_Fop1 = 1111,IFID_Fop2 = 1111 
Control: control = 1111, R15 = 1,ALUSrc= 0,MemToReg = 1,RegWrite = 1,MemRead = 0,MemWrite = 0, Branch = 0, ALUOP = 11 
RegFile:  Instruc_in = fff1, Writedata = xxxx Writereg =xxxx RegWrite = 1 reset = 0 op1 = 0000 op2 = 0000 Reg15 = 0000
IDEX:IDEX_FLUSH =0, RD1 = 0000,RD2 = 0000, signExtendedR2 = 1111111111111111, funct_code_in =0001, IFID_RS = 1111, IFID_RT =1111 , R15_in = 1, ALUSrc_in = 0, MemToReg_in =1, RegWrite_in= 1, MemRead_in = 0, MemWrite_in = 0,Branch_in = 0, ALUOP_in =11,R15_out =1,ALUSrc_out = 0 ,MemToReg_out =1,RegWrite_out = 1,MemRead_out =0, MemWrite_out =0 , Branch_out =0,ALUOP_out = 11, RD1_out = 0000, RD2_out =0000, signExtendedR2_out =1111111111111111, funct_code_out =0001, IFID_RS_OUT =f, IFID_RT_OUT = f, opcode = 1111, opcode_out = 1111, addr_in = 0c, addr_out =xx 
SignExtension toExtend: 1111 signExtend: 1111111111111111
ALUControl funct: 0001 ALUop: 11  operation: 0010
  ALU operation: 0010 op1: 0000 op2: 0000 result: 0000 remainder: xxxx overflow:0 
EXMBuffer: ALU_Result = 0000, ALU_Remainder= 0000, movOP_in= xxxxxxxxxxxxxxxx , MemtoReg_in = x,MemWrite_in =1, MemRead_in = 0, R15_in =0,FLUSH_EX =1, RegWrite =0, IDEX_RegRD =1, ,MemtoReg_out = xxxx, MemWrite_out = 1, MemRead_out =0, R15_out =0,RegWrite_out =1, ALU_Result_out =1, ALU_Remainder_out = 0000, movOp_out =xxxxxxxxxxxxxxxx,EXM_RegRD_out = 1111
MEM: MemWrite: 1111 MemRead: 0 data_in: 0 data_out:0000 
MWBBuffer: MemToReg_in: 0000000000000000 RegWrite_in: 0000000000000000 ALU_Result: 1 ReadData: 1 movOP_in: 0000 MemToReg_out: 0000000000000000 RegWriteOut: 0000000000000000 ALU_Result_out: 1 ReadData_out: 1 movOP_out 0000 
 WBMUX: MemToReg =x, ALUResult = f, MReadData = 1, WriteData = 0000    x    x

 PC: reset = 0, addr_in = 0e, addr_out = 0e 
ADDER: addr_in = 0e, constant = 02, addr_out = 0e,
IM: Addr_in = 0e, Addr_out = xx, instruc_out = f487 
IFIDBUFFER: instruc_in = f487, addr_in = 0e, ,instruc_out = f487, opcode = 1111, funct= 0111, addr_out = xx, offset = 010010000111 , IFID_Fop1 = 0100,IFID_Fop2 = 1000 
Control: control = 1111, R15 = 1,ALUSrc= 0,MemToReg = 1,RegWrite = 1,MemRead = 0,MemWrite = 0, Branch = 0, ALUOP = 11 
RegFile:  Instruc_in = f487, Writedata = xxxx Writereg =xxxx RegWrite = 1 reset = 0 op1 = f0ff op2 = ff88 Reg15 = 0000
IDEX:IDEX_FLUSH =0, RD1 = f0ff,RD2 = ff88, signExtendedR2 = 1111111111111000, funct_code_in =0111, IFID_RS = 0100, IFID_RT =1000 , R15_in = 1, ALUSrc_in = 0, MemToReg_in =1, RegWrite_in= 1, MemRead_in = 0, MemWrite_in = 0,Branch_in = 0, ALUOP_in =11,R15_out =1,ALUSrc_out = 0 ,MemToReg_out =1,RegWrite_out = 1,MemRead_out =0, MemWrite_out =0 , Branch_out =0,ALUOP_out = 11, RD1_out = f0ff, RD2_out =ff88, signExtendedR2_out =1111111111111000, funct_code_out =0111, IFID_RS_OUT =4, IFID_RT_OUT = 8, opcode = 1111, opcode_out = 1111, addr_in = 0e, addr_out =xx 
SignExtension toExtend: 1000 signExtend: 1111111111111000
ALUControl funct: 0111 ALUop: 11  operation: 0101
  ALU operation: 0101 op1: f0ff op2: ff88 result: f0ff remainder: xxxx overflow:0 
EXMBuffer: ALU_Result = f0ff, ALU_Remainder= f0ff, movOP_in= xxxxxxxxxxxxxxxx , MemtoReg_in = x,MemWrite_in =1, MemRead_in = 0, R15_in =0,FLUSH_EX =1, RegWrite =0, IDEX_RegRD =1, ,MemtoReg_out = xxxx, MemWrite_out = 1, MemRead_out =0, R15_out =0,RegWrite_out =1, ALU_Result_out =1, ALU_Remainder_out = f0ff, movOp_out =xxxxxxxxxxxxxxxx,EXM_RegRD_out = 1000
MEM: MemWrite: 0100 MemRead: 0 data_in: 0 data_out:f0ff 
MWBBuffer: MemToReg_in: 1111000011111111 RegWrite_in: 0000000000000000 ALU_Result: 1 ReadData: 1 movOP_in: f0ff MemToReg_out: 0000000000000000 RegWriteOut: 1111000011111111 ALU_Result_out: 1 ReadData_out: 1 movOP_out f0ff 
 WBMUX: MemToReg =x, ALUResult = 8, MReadData = 1, WriteData = f0ff    x    x

 PC: reset = 0, addr_in = 10, addr_out = 10 
ADDER: addr_in = 10, constant = 02, addr_out = 10,
IM: Addr_in = 10, Addr_out = xx, instruc_out = f468 
IFIDBUFFER: instruc_in = f468, addr_in = 10, ,instruc_out = f468, opcode = 1111, funct= 1000, addr_out = xx, offset = 010001101000 , IFID_Fop1 = 0100,IFID_Fop2 = 0110 
Control: control = 1111, R15 = 1,ALUSrc= 0,MemToReg = 1,RegWrite = 1,MemRead = 0,MemWrite = 0, Branch = 0, ALUOP = 11 
RegFile:  Instruc_in = f468, Writedata = xxxx Writereg =xxxx RegWrite = 1 reset = 0 op1 = f0ff op2 = 6666 Reg15 = 0000
IDEX:IDEX_FLUSH =0, RD1 = f0ff,RD2 = 6666, signExtendedR2 = 0000000000000110, funct_code_in =1000, IFID_RS = 0100, IFID_RT =0110 , R15_in = 1, ALUSrc_in = 0, MemToReg_in =1, RegWrite_in= 1, MemRead_in = 0, MemWrite_in = 0,Branch_in = 0, ALUOP_in =11,R15_out =1,ALUSrc_out = 0 ,MemToReg_out =1,RegWrite_out = 1,MemRead_out =0, MemWrite_out =0 , Branch_out =0,ALUOP_out = 11, RD1_out = f0ff, RD2_out =6666, signExtendedR2_out =0000000000000110, funct_code_out =1000, IFID_RS_OUT =4, IFID_RT_OUT = 6, opcode = 1111, opcode_out = 1111, addr_in = 10, addr_out =xx 
SignExtension toExtend: 0110 signExtend: 0000000000000110
ALUControl funct: 1000 ALUop: 11  operation: 0110
  ALU operation: 0110 op1: f0ff op2: 6666 result: f0ff remainder: xxxx overflow:0 
EXMBuffer: ALU_Result = f0ff, ALU_Remainder= f0ff, movOP_in= xxxxxxxxxxxxxxxx , MemtoReg_in = x,MemWrite_in =1, MemRead_in = 0, R15_in =0,FLUSH_EX =1, RegWrite =0, IDEX_RegRD =1, ,MemtoReg_out = xxxx, MemWrite_out = 1, MemRead_out =0, R15_out =0,RegWrite_out =1, ALU_Result_out =1, ALU_Remainder_out = f0ff, movOp_out =xxxxxxxxxxxxxxxx,EXM_RegRD_out = 0110
MEM: MemWrite: 0100 MemRead: 0 data_in: 0 data_out:f0ff 
MWBBuffer: MemToReg_in: 1111000011111111 RegWrite_in: 0000000000000000 ALU_Result: 1 ReadData: 1 movOP_in: f0ff MemToReg_out: 0000000000000000 RegWriteOut: 1111000011111111 ALU_Result_out: 1 ReadData_out: 1 movOP_out f0ff 
 WBMUX: MemToReg =x, ALUResult = 6, MReadData = 1, WriteData = f0ff    x    x

 PC: reset = 0, addr_in = 12, addr_out = 12 
ADDER: addr_in = 12, constant = 02, addr_out = 12,
IM: Addr_in = 12, Addr_out = xx, instruc_out = 9402 
IFIDBUFFER: instruc_in = 9402, addr_in = 12, ,instruc_out = 9402, opcode = 1001, funct= 0010, addr_out = xx, offset = 010000000010 , IFID_Fop1 = 0100,IFID_Fop2 = 0000 
Control: control = 1001, R15 = 1,ALUSrc= 0,MemToReg = 1,RegWrite = 1,MemRead = 0,MemWrite = 0, Branch = 0, ALUOP = 11 
RegFile:  Instruc_in = 9402, Writedata = xxxx Writereg =xxxx RegWrite = 1 reset = 0 op1 = f0ff op2 = xxxx Reg15 = 0000
IDEX:IDEX_FLUSH =0, RD1 = f0ff,RD2 = xxxx, signExtendedR2 = 0000000000000000, funct_code_in =0010, IFID_RS = 0100, IFID_RT =0000 , R15_in = 1, ALUSrc_in = 0, MemToReg_in =1, RegWrite_in= 1, MemRead_in = 0, MemWrite_in = 0,Branch_in = 0, ALUOP_in =11,R15_out =1,ALUSrc_out = 0 ,MemToReg_out =1,RegWrite_out = 1,MemRead_out =0, MemWrite_out =0 , Branch_out =0,ALUOP_out = 11, RD1_out = f0ff, RD2_out =xxxx, signExtendedR2_out =0000000000000000, funct_code_out =0010, IFID_RS_OUT =4, IFID_RT_OUT = 0, opcode = 1001, opcode_out = 1001, addr_in = 12, addr_out =xx 
SignExtension toExtend: 0000 signExtend: 0000000000000000
ALUControl funct: 0010 ALUop: 11  operation: 0110
  ALU operation: 0110 op1: f0ff op2: xxxx result: f0ff remainder: xxxx overflow:0 
EXMBuffer: ALU_Result = f0ff, ALU_Remainder= f0ff, movOP_in= xxxxxxxxxxxxxxxx , MemtoReg_in = x,MemWrite_in =1, MemRead_in = 0, R15_in =0,FLUSH_EX =1, RegWrite =0, IDEX_RegRD =1, ,MemtoReg_out = xxxx, MemWrite_out = 1, MemRead_out =0, R15_out =0,RegWrite_out =1, ALU_Result_out =1, ALU_Remainder_out = f0ff, movOp_out =xxxxxxxxxxxxxxxx,EXM_RegRD_out = 0000
MEM: MemWrite: 0100 MemRead: 0 data_in: 0 data_out:f0ff 
MWBBuffer: MemToReg_in: 1111000011111111 RegWrite_in: 0000000000000000 ALU_Result: 1 ReadData: 1 movOP_in: f0ff MemToReg_out: 0000000000000000 RegWriteOut: 1111000011111111 ALU_Result_out: 1 ReadData_out: 1 movOP_out f0ff 
 WBMUX: MemToReg =x, ALUResult = 0, MReadData = 1, WriteData = f0ff    x    x

 PC: reset = 0, addr_in = 14, addr_out = 14 
ADDER: addr_in = 14, constant = 02, addr_out = 14,
IM: Addr_in = 14, Addr_out = xx, instruc_out = a696 
IFIDBUFFER: instruc_in = a696, addr_in = 14, ,instruc_out = a696, opcode = 1010, funct= 0110, addr_out = xx, offset = 011010010110 , IFID_Fop1 = 0110,IFID_Fop2 = 1001 
Control: control = 1010, R15 = 0,ALUSrc= 1,MemToReg = 0,RegWrite = 1,MemRead = 0,MemWrite = 0, Branch = 0, ALUOP = 11 
RegFile:  Instruc_in = a696, Writedata = 6666 Writereg =xxxx RegWrite = 1 reset = 0 op1 = 6666 op2 = 0000 Reg15 = 0000
IDEX:IDEX_FLUSH =0, RD1 = 6666,RD2 = 0000, signExtendedR2 = 1111111111111001, funct_code_in =0110, IFID_RS = 0110, IFID_RT =1001 , R15_in = 0, ALUSrc_in = 1, MemToReg_in =0, RegWrite_in= 1, MemRead_in = 0, MemWrite_in = 0,Branch_in = 0, ALUOP_in =11,R15_out =0,ALUSrc_out = 1 ,MemToReg_out =0,RegWrite_out = 1,MemRead_out =0, MemWrite_out =0 , Branch_out =0,ALUOP_out = 11, RD1_out = 6666, RD2_out =0000, signExtendedR2_out =1111111111111001, funct_code_out =0110, IFID_RS_OUT =6, IFID_RT_OUT = 9, opcode = 1010, opcode_out = 1010, addr_in = 14, addr_out =xx 
SignExtension toExtend: 1001 signExtend: 1111111111111001
ALUControl funct: 0110 ALUop: 11  operation: 0110
  ALU operation: 0110 op1: 6666 op2: 0000 result: 6666 remainder: xxxx overflow:0 
EXMBuffer: ALU_Result = 6666, ALU_Remainder= 6666, movOP_in= xxxxxxxxxxxxxxxx , MemtoReg_in = x,MemWrite_in =0, MemRead_in = 0, R15_in =0,FLUSH_EX =0, RegWrite =0, IDEX_RegRD =1, ,MemtoReg_out = xxxx, MemWrite_out = 0, MemRead_out =0, R15_out =0,RegWrite_out =0, ALU_Result_out =1, ALU_Remainder_out = 6666, movOp_out =xxxxxxxxxxxxxxxx,EXM_RegRD_out = 1001
MEM: MemWrite: 0110 MemRead: 0 data_in: 0 data_out:6666 
MWBBuffer: MemToReg_in: 0110011001100110 RegWrite_in: 0000000000000000 ALU_Result: 0 ReadData: 1 movOP_in: 6666 MemToReg_out: 0000000000000000 RegWriteOut: 0110011001100110 ALU_Result_out: 0 ReadData_out: 1 movOP_out 6666 
 WBMUX: MemToReg =x, ALUResult = 9, MReadData = 0, WriteData = 6666    x    x

 PC: reset = 0, addr_in = 16, addr_out = 16 
ADDER: addr_in = 16, constant = 02, addr_out = 16,
IM: Addr_in = 16, Addr_out = xx, instruc_out = b696 
IFIDBUFFER: instruc_in = b696, addr_in = 16, ,instruc_out = b696, opcode = 1011, funct= 0110, addr_out = xx, offset = 011010010110 , IFID_Fop1 = 0110,IFID_Fop2 = 1001 
Control: control = 1011, R15 = 0,ALUSrc= 1,MemToReg = 1,RegWrite = 1,MemRead = 1,MemWrite = 0, Branch = 0, ALUOP = 10 
RegFile:  Instruc_in = b696, Writedata = xxxx Writereg =xxxx RegWrite = 1 reset = 0 op1 = 6666 op2 = 0000 Reg15 = 0000
IDEX:IDEX_FLUSH =0, RD1 = 6666,RD2 = 0000, signExtendedR2 = 1111111111111001, funct_code_in =0110, IFID_RS = 0110, IFID_RT =1001 , R15_in = 0, ALUSrc_in = 1, MemToReg_in =1, RegWrite_in= 1, MemRead_in = 1, MemWrite_in = 0,Branch_in = 0, ALUOP_in =10,R15_out =0,ALUSrc_out = 1 ,MemToReg_out =1,RegWrite_out = 1,MemRead_out =1, MemWrite_out =0 , Branch_out =0,ALUOP_out = 10, RD1_out = 6666, RD2_out =0000, signExtendedR2_out =1111111111111001, funct_code_out =0110, IFID_RS_OUT =6, IFID_RT_OUT = 9, opcode = 1011, opcode_out = 1011, addr_in = 16, addr_out =xx 
SignExtension toExtend: 1001 signExtend: 1111111111111001
ALUControl funct: 0110 ALUop: 10  operation: 0001
  ALU operation: 0001 op1: 6666 op2: 0000 result: 6666 remainder: xxxx overflow:0 
EXMBuffer: ALU_Result = 6666, ALU_Remainder= 6666, movOP_in= xxxxxxxxxxxxxxxx , MemtoReg_in = x,MemWrite_in =1, MemRead_in = 0, R15_in =1,FLUSH_EX =0, RegWrite =0, IDEX_RegRD =1, ,MemtoReg_out = xxxx, MemWrite_out = 1, MemRead_out =0, R15_out =1,RegWrite_out =0, ALU_Result_out =1, ALU_Remainder_out = 6666, movOp_out =xxxxxxxxxxxxxxxx,EXM_RegRD_out = 1001
